<svg width="55" height="51" viewBox="0 0 55 51" fill="none" xmlns="http://www.w3.org/2000/svg">
<path d="M26.6288 7.26393L17.667 16.7556V26.9999C17.667 27.2651 17.749 27.5195 17.8948 27.7071C18.0407 27.8946 18.2385 28 18.4448 28L23.8917 27.9819C24.0973 27.9805 24.2941 27.8746 24.4391 27.6872C24.5841 27.4998 24.6655 27.2461 24.6655 26.9818V20.9992C24.6655 20.734 24.7475 20.4796 24.8933 20.292C25.0392 20.1045 25.237 19.9991 25.4432 19.9991H28.5541C28.7604 19.9991 28.9582 20.1045 29.104 20.292C29.2499 20.4796 29.3318 20.734 29.3318 20.9992V26.9774C29.3315 27.109 29.3514 27.2394 29.3903 27.3611C29.4293 27.4828 29.4865 27.5934 29.5588 27.6866C29.631 27.7798 29.7168 27.8537 29.8114 27.9042C29.9059 27.9547 30.0072 27.9806 30.1095 27.9806L35.5545 28C35.7608 28 35.9586 27.8946 36.1045 27.7071C36.2503 27.5195 36.3323 27.2651 36.3323 26.9999V16.7487L27.3725 7.26393C27.2671 7.15475 27.1359 7.09521 27.0006 7.09521C26.8653 7.09521 26.7341 7.15475 26.6288 7.26393ZM40.7847 13.7153L36.7211 9.40792V0.750084C36.7211 0.551149 36.6597 0.360363 36.5503 0.219695C36.4409 0.0790266 36.2925 0 36.1378 0H33.4158C33.2611 0 33.1128 0.0790266 33.0034 0.219695C32.894 0.360363 32.8325 0.551149 32.8325 0.750084V5.28871L28.4807 0.684451C28.0631 0.242514 27.539 0.000883439 26.9982 0.000883439C26.4573 0.000883439 25.9333 0.242514 25.5157 0.684451L13.2117 13.7153C13.1526 13.7781 13.1038 13.8552 13.0679 13.9423C13.032 14.0293 13.0098 14.1246 13.0026 14.2227C12.9954 14.3208 13.0033 14.4198 13.0258 14.514C13.0483 14.6082 13.0851 14.6957 13.1339 14.7716L14.3734 16.7094C14.4221 16.7855 14.482 16.8486 14.5497 16.895C14.6174 16.9413 14.6916 16.9701 14.7679 16.9795C14.8443 16.989 14.9213 16.979 14.9947 16.9501C15.068 16.9213 15.1362 16.8741 15.1954 16.8113L26.6288 4.70115C26.7341 4.59197 26.8653 4.53243 27.0006 4.53243C27.1359 4.53243 27.2671 4.59197 27.3725 4.70115L38.8064 16.8113C38.8654 16.8741 38.9335 16.9213 39.0067 16.9503C39.08 16.9793 39.1569 16.9894 39.2332 16.9801C39.3095 16.9708 39.3836 16.9423 39.4513 16.8962C39.519 16.85 39.579 16.7872 39.6278 16.7112L40.8673 14.7735C40.9161 14.6972 40.9527 14.6092 40.975 14.5146C40.9973 14.42 41.0048 14.3207 40.9971 14.2223C40.9894 14.124 40.9667 14.0286 40.9302 13.9415C40.8938 13.8545 40.8443 13.7776 40.7847 13.7153Z" fill="#D0D2DC"/>
<path d="M10.1494 44.512H7.00537L6.50137 46H4.35337L7.40137 37.576H9.77737L12.8254 46H10.6534L10.1494 44.512ZM9.62137 42.928L8.57737 39.844L7.54537 42.928H9.62137ZM13.345 42.652C13.345 41.956 13.485 41.348 13.765 40.828C14.053 40.308 14.449 39.908 14.953 39.628C15.465 39.348 16.049 39.208 16.705 39.208C17.545 39.208 18.245 39.428 18.805 39.868C19.373 40.308 19.745 40.928 19.921 41.728H17.737C17.553 41.216 17.197 40.96 16.669 40.96C16.293 40.96 15.993 41.108 15.769 41.404C15.545 41.692 15.433 42.108 15.433 42.652C15.433 43.196 15.545 43.616 15.769 43.912C15.993 44.2 16.293 44.344 16.669 44.344C17.197 44.344 17.553 44.088 17.737 43.576H19.921C19.745 44.36 19.373 44.976 18.805 45.424C18.237 45.872 17.537 46.096 16.705 46.096C16.049 46.096 15.465 45.956 14.953 45.676C14.449 45.396 14.053 44.996 13.765 44.476C13.485 43.956 13.345 43.348 13.345 42.652ZM20.6107 42.652C20.6107 41.956 20.7507 41.348 21.0307 40.828C21.3187 40.308 21.7147 39.908 22.2187 39.628C22.7307 39.348 23.3147 39.208 23.9707 39.208C24.8107 39.208 25.5107 39.428 26.0707 39.868C26.6387 40.308 27.0107 40.928 27.1867 41.728H25.0027C24.8187 41.216 24.4627 40.96 23.9347 40.96C23.5587 40.96 23.2587 41.108 23.0347 41.404C22.8107 41.692 22.6987 42.108 22.6987 42.652C22.6987 43.196 22.8107 43.616 23.0347 43.912C23.2587 44.2 23.5587 44.344 23.9347 44.344C24.4627 44.344 24.8187 44.088 25.0027 43.576H27.1867C27.0107 44.36 26.6387 44.976 26.0707 45.424C25.5027 45.872 24.8027 46.096 23.9707 46.096C23.3147 46.096 22.7307 45.956 22.2187 45.676C21.7147 45.396 21.3187 44.996 21.0307 44.476C20.7507 43.956 20.6107 43.348 20.6107 42.652ZM34.8963 39.304V46H32.8443V45.088C32.6363 45.384 32.3523 45.624 31.9923 45.808C31.6403 45.984 31.2483 46.072 30.8163 46.072C30.3043 46.072 29.8523 45.96 29.4603 45.736C29.0683 45.504 28.7643 45.172 28.5483 44.74C28.3323 44.308 28.2243 43.8 28.2243 43.216V39.304H30.2643V42.94C30.2643 43.388 30.3803 43.736 30.6123 43.984C30.8443 44.232 31.1563 44.356 31.5483 44.356C31.9483 44.356 32.2643 44.232 32.4963 43.984C32.7283 43.736 32.8443 43.388 32.8443 42.94V39.304H34.8963ZM42.6822 42.544C42.6822 42.736 42.6702 42.936 42.6462 43.144H38.0022C38.0342 43.56 38.1662 43.88 38.3982 44.104C38.6382 44.32 38.9302 44.428 39.2742 44.428C39.7862 44.428 40.1422 44.212 40.3422 43.78H42.5262C42.4142 44.22 42.2102 44.616 41.9142 44.968C41.6262 45.32 41.2622 45.596 40.8222 45.796C40.3822 45.996 39.8902 46.096 39.3462 46.096C38.6902 46.096 38.1062 45.956 37.5942 45.676C37.0822 45.396 36.6822 44.996 36.3942 44.476C36.1062 43.956 35.9622 43.348 35.9622 42.652C35.9622 41.956 36.1022 41.348 36.3822 40.828C36.6702 40.308 37.0702 39.908 37.5822 39.628C38.0942 39.348 38.6822 39.208 39.3462 39.208C39.9942 39.208 40.5702 39.344 41.0742 39.616C41.5782 39.888 41.9702 40.276 42.2502 40.78C42.5382 41.284 42.6822 41.872 42.6822 42.544ZM40.5822 42.004C40.5822 41.652 40.4622 41.372 40.2222 41.164C39.9822 40.956 39.6822 40.852 39.3222 40.852C38.9782 40.852 38.6862 40.952 38.4462 41.152C38.2142 41.352 38.0702 41.636 38.0142 42.004H40.5822ZM44.7967 38.608C44.4367 38.608 44.1407 38.504 43.9087 38.296C43.6847 38.08 43.5727 37.816 43.5727 37.504C43.5727 37.184 43.6847 36.92 43.9087 36.712C44.1407 36.496 44.4367 36.388 44.7967 36.388C45.1487 36.388 45.4367 36.496 45.6607 36.712C45.8927 36.92 46.0087 37.184 46.0087 37.504C46.0087 37.816 45.8927 38.08 45.6607 38.296C45.4367 38.504 45.1487 38.608 44.7967 38.608ZM45.8167 39.304V46H43.7647V39.304H45.8167ZM49.3558 37.12V46H47.3038V37.12H49.3558Z" fill="#D0D2DC"/>
</svg>
