<svg width="40" height="56" viewBox="0 0 40 56" fill="none" xmlns="http://www.w3.org/2000/svg">
<path d="M33.5664 14.9717C33.5817 23.2362 26.8418 29.9942 18.5773 30C15.0078 30.0025 11.7291 28.7583 9.15257 26.6788C8.48259 26.138 8.43251 25.1339 9.04134 24.5251L9.72281 23.8436C10.2435 23.3229 11.0748 23.266 11.6517 23.7236C13.55 25.23 15.9523 26.1291 18.5664 26.1291C24.7179 26.1291 29.6954 21.1506 29.6954 15C29.6954 8.84851 24.7169 3.87098 18.5664 3.87098C15.6139 3.87098 12.9324 5.0183 10.9413 6.89106L14.0111 9.96087C14.6208 10.5705 14.189 11.6129 13.3269 11.6129H4.53415C3.99965 11.6129 3.56641 11.1797 3.56641 10.6452V1.85244C3.56641 0.990304 4.60878 0.558509 5.21846 1.16813L8.20467 4.15434C10.8976 1.58081 14.5474 0 18.5664 0C26.8412 0 33.5511 6.70042 33.5664 14.9717ZM22.6241 19.7368L23.2183 18.9729C23.7105 18.3401 23.5965 17.428 22.9636 16.9359L20.5019 15.0211V8.70969C20.5019 7.90798 19.852 7.25808 19.0503 7.25808H18.0825C17.2808 7.25808 16.6309 7.90798 16.6309 8.70969V16.9144L20.5871 19.9915C21.2199 20.4836 22.1319 20.3697 22.6241 19.7368Z" fill="#45C6BE"/>
<path d="M8.19843 51L6.44643 47.82H5.95443V51H3.90243V42.576H7.34643C8.01043 42.576 8.57443 42.692 9.03843 42.924C9.51043 43.156 9.86243 43.476 10.0944 43.884C10.3264 44.284 10.4424 44.732 10.4424 45.228C10.4424 45.788 10.2824 46.288 9.96243 46.728C9.65043 47.168 9.18643 47.48 8.57043 47.664L10.5144 51H8.19843ZM5.95443 46.368H7.22643C7.60243 46.368 7.88243 46.276 8.06643 46.092C8.25843 45.908 8.35443 45.648 8.35443 45.312C8.35443 44.992 8.25843 44.74 8.06643 44.556C7.88243 44.372 7.60243 44.28 7.22643 44.28H5.95443V46.368ZM18.0426 47.544C18.0426 47.736 18.0306 47.936 18.0066 48.144H13.3626C13.3946 48.56 13.5266 48.88 13.7586 49.104C13.9986 49.32 14.2906 49.428 14.6346 49.428C15.1466 49.428 15.5026 49.212 15.7026 48.78H17.8866C17.7746 49.22 17.5706 49.616 17.2746 49.968C16.9866 50.32 16.6226 50.596 16.1826 50.796C15.7426 50.996 15.2506 51.096 14.7066 51.096C14.0506 51.096 13.4666 50.956 12.9546 50.676C12.4426 50.396 12.0426 49.996 11.7546 49.476C11.4666 48.956 11.3226 48.348 11.3226 47.652C11.3226 46.956 11.4626 46.348 11.7426 45.828C12.0306 45.308 12.4306 44.908 12.9426 44.628C13.4546 44.348 14.0426 44.208 14.7066 44.208C15.3546 44.208 15.9306 44.344 16.4346 44.616C16.9386 44.888 17.3306 45.276 17.6106 45.78C17.8986 46.284 18.0426 46.872 18.0426 47.544ZM15.9426 47.004C15.9426 46.652 15.8226 46.372 15.5826 46.164C15.3426 45.956 15.0426 45.852 14.6826 45.852C14.3386 45.852 14.0466 45.952 13.8066 46.152C13.5746 46.352 13.4306 46.636 13.3746 47.004H15.9426ZM16.0866 42.588L13.1946 43.8V42.384L16.0866 40.992V42.588ZM22.8571 49.26V51H21.8131C21.0691 51 20.4891 50.82 20.0731 50.46C19.6571 50.092 19.4491 49.496 19.4491 48.672V46.008H18.6331V44.304H19.4491V42.672H21.5011V44.304H22.8451V46.008H21.5011V48.696C21.5011 48.896 21.5491 49.04 21.6451 49.128C21.7411 49.216 21.9011 49.26 22.1251 49.26H22.8571ZM26.0521 45.42C26.2921 45.052 26.5921 44.764 26.9521 44.556C27.3121 44.34 27.7121 44.232 28.1521 44.232V46.404H27.5881C27.0761 46.404 26.6921 46.516 26.4361 46.74C26.1801 46.956 26.0521 47.34 26.0521 47.892V51H24.0001V44.304H26.0521V45.42ZM32.1809 51.096C31.5249 51.096 30.9329 50.956 30.4049 50.676C29.8849 50.396 29.4729 49.996 29.1689 49.476C28.8729 48.956 28.7249 48.348 28.7249 47.652C28.7249 46.964 28.8769 46.36 29.1809 45.84C29.4849 45.312 29.9009 44.908 30.4289 44.628C30.9569 44.348 31.5489 44.208 32.2049 44.208C32.8609 44.208 33.4529 44.348 33.9809 44.628C34.5089 44.908 34.9249 45.312 35.2289 45.84C35.5329 46.36 35.6849 46.964 35.6849 47.652C35.6849 48.34 35.5289 48.948 35.2169 49.476C34.9129 49.996 34.4929 50.396 33.9569 50.676C33.4289 50.956 32.8369 51.096 32.1809 51.096ZM32.1809 49.32C32.5729 49.32 32.9049 49.176 33.1769 48.888C33.4569 48.6 33.5969 48.188 33.5969 47.652C33.5969 47.116 33.4609 46.704 33.1889 46.416C32.9249 46.128 32.5969 45.984 32.2049 45.984C31.8049 45.984 31.4729 46.128 31.2089 46.416C30.9449 46.696 30.8129 47.108 30.8129 47.652C30.8129 48.188 30.9409 48.6 31.1969 48.888C31.4609 49.176 31.7889 49.32 32.1809 49.32Z" fill="#45C6BE"/>
</svg>
