<svg width="37" height="37" viewBox="0 0 37 37" fill="none" xmlns="http://www.w3.org/2000/svg">
<path d="M37 18.4651C37.0188 28.658 28.7063 36.9928 18.5134 37C14.1111 37.0031 10.0673 35.4685 6.8896 32.9038C6.06329 32.2369 6.00153 30.9985 6.75242 30.2476L7.5929 29.4071C8.2351 28.7649 9.26036 28.6947 9.97186 29.2592C12.3131 31.117 15.276 32.2259 18.5 32.2259C26.0868 32.2259 32.2258 26.0857 32.2258 18.5C32.2258 10.9132 26.0856 4.7742 18.5 4.7742C14.8586 4.7742 11.5514 6.18923 9.09573 8.49898L12.8818 12.2851C13.6337 13.037 13.1012 14.3226 12.0379 14.3226H1.19355C0.534336 14.3226 0 13.7883 0 13.1291V2.28468C0 1.22138 1.2856 0.688828 2.03753 1.44069L5.72052 5.12369C9.04179 1.94966 13.5432 0 18.5 0C28.7056 0 36.9811 8.26385 37 18.4651ZM23.5045 24.3421L24.2373 23.3999C24.8444 22.6194 24.7037 21.4946 23.9232 20.8876L20.8871 18.5261V10.742C20.8871 9.75317 20.0855 8.95163 19.0968 8.95163H17.9032C16.9144 8.95163 16.1129 9.75317 16.1129 10.742V20.8611L20.9922 24.6561C21.7727 25.2631 22.8975 25.1226 23.5045 24.3421Z" fill="#D0D2DC"/>
</svg>
