<svg width="37" height="37" viewBox="0 0 37 37" fill="none" xmlns="http://www.w3.org/2000/svg">
<path d="M15.4167 4.625H4.625V15.4167H15.4167V4.625Z" stroke="#45C6BE" stroke-width="2" stroke-linecap="round" stroke-linejoin="round"/>
<path d="M32.3747 4.625H21.583V15.4167H32.3747V4.625Z" stroke="#45C6BE" stroke-width="2" stroke-linecap="round" stroke-linejoin="round"/>
<path d="M32.3747 21.583H21.583V32.3747H32.3747V21.583Z" stroke="#45C6BE" stroke-width="2" stroke-linecap="round" stroke-linejoin="round"/>
<path d="M15.4167 21.583H4.625V32.3747H15.4167V21.583Z" stroke="#45C6BE" stroke-width="2" stroke-linecap="round" stroke-linejoin="round"/>
</svg>
