<svg width="37" height="37" viewBox="0 0 37 37" fill="none" xmlns="http://www.w3.org/2000/svg">
<path d="M32.375 15.417H4.625" stroke="#45C6BE" stroke-width="2" stroke-linecap="round" stroke-linejoin="round"/>
<path d="M32.375 9.25H4.625" stroke="#45C6BE" stroke-width="2" stroke-linecap="round" stroke-linejoin="round"/>
<path d="M32.375 21.583H4.625" stroke="#45C6BE" stroke-width="2" stroke-linecap="round" stroke-linejoin="round"/>
<path d="M32.375 27.75H4.625" stroke="#45C6BE" stroke-width="2" stroke-linecap="round" stroke-linejoin="round"/>
</svg>
