<svg width="35" height="35" viewBox="0 0 35 35" fill="none" xmlns="http://www.w3.org/2000/svg">
<path d="M0.928103 16.1395L26.5954 0.563249C27.8329 -0.18775 29.8403 -0.18775 31.0778 0.563249L34.0717 2.38023C35.3079 3.13043 35.3092 4.3455 34.077 5.0973L13.7347 17.4996L34.0757 29.9027C35.3092 30.6545 35.3066 31.8696 34.0704 32.6198L31.0764 34.4368C29.839 35.1878 27.8315 35.1878 26.5941 34.4368L0.928103 18.8597C-0.309368 18.1087 -0.309368 16.8905 0.928103 16.1395V16.1395Z" fill="black"/>
</svg>
