<svg width="37" height="37" viewBox="0 0 37 37" fill="none" xmlns="http://www.w3.org/2000/svg">
<path d="M18.5 32.375C26.163 32.375 32.375 26.163 32.375 18.5C32.375 10.837 26.163 4.625 18.5 4.625C10.837 4.625 4.625 10.837 4.625 18.5C4.625 26.163 10.837 32.375 18.5 32.375Z" stroke="#020202" stroke-width="2.75" stroke-linecap="round" stroke-linejoin="round"/>
<path d="M18.4997 20.0413C19.3511 20.0413 20.0413 19.3511 20.0413 18.4997C20.0413 17.6482 19.3511 16.958 18.4997 16.958C17.6482 16.958 16.958 17.6482 16.958 18.4997C16.958 19.3511 17.6482 20.0413 18.4997 20.0413Z" stroke="#020202" stroke-width="2.75" stroke-linecap="round" stroke-linejoin="round"/>
<path d="M20.6738 16.3259L24.6667 12.333" stroke="#020202" stroke-width="2.75" stroke-linecap="round" stroke-linejoin="round"/>
<path d="M10.792 18.5003C10.792 16.4559 11.6041 14.4953 13.0497 13.0497C14.4953 11.6041 16.456 10.792 18.5003 10.792" stroke="#020202" stroke-width="2.75" stroke-linecap="round" stroke-linejoin="round"/>
</svg>
