<svg width="37" height="37" viewBox="0 0 37 37" fill="none" xmlns="http://www.w3.org/2000/svg">
<path d="M13.8747 7.70801H10.7913C9.97359 7.70801 9.18933 8.03286 8.6111 8.6111C8.03286 9.18933 7.70801 9.97359 7.70801 10.7913V29.2913C7.70801 30.1091 8.03286 30.8934 8.6111 31.4716C9.18933 32.0498 9.97359 32.3747 10.7913 32.3747H26.208C27.0258 32.3747 27.81 32.0498 28.3883 31.4716C28.9665 30.8934 29.2913 30.1091 29.2913 29.2913V10.7913C29.2913 9.97359 28.9665 9.18933 28.3883 8.6111C27.81 8.03286 27.0258 7.70801 26.208 7.70801H23.1247" stroke="black" stroke-width="2.75" stroke-linecap="round" stroke-linejoin="round"/>
<path d="M20.0417 4.625H16.9583C15.2555 4.625 13.875 6.00546 13.875 7.70833C13.875 9.41121 15.2555 10.7917 16.9583 10.7917H20.0417C21.7445 10.7917 23.125 9.41121 23.125 7.70833C23.125 6.00546 21.7445 4.625 20.0417 4.625Z" stroke="black" stroke-width="2.75" stroke-linecap="round" stroke-linejoin="round"/>
<path d="M13.875 18.5H13.8904" stroke="black" stroke-width="2.75" stroke-linecap="round" stroke-linejoin="round"/>
<path d="M20.042 18.5H23.1253" stroke="black" stroke-width="2.75" stroke-linecap="round" stroke-linejoin="round"/>
<path d="M13.875 24.667H13.8904" stroke="black" stroke-width="2.75" stroke-linecap="round" stroke-linejoin="round"/>
<path d="M20.042 24.667H23.1253" stroke="black" stroke-width="2.75" stroke-linecap="round" stroke-linejoin="round"/>
</svg>
